{
  "name": "electron-qr",
  "version": "1.0.0",
  "description": "",
  "main": "electron.js",
  "scripts": {},
  "keywords": [],
  "author": "",
  "license": "ISC",
  "dependencies": {
    "electron": "^1.6.2",
    "electron-json-storage": "^3.0.4",
    "instascan": "^1.0.0",
    "lodash": "^4.17.4",
    "node-fetch": "^1.6.3",
    "chalk": "^1.1.3",
    "google-auth-library": "^0.10.0",
    "googleapis": "^19.0.0"
  },
  "devDependencies": {}
}
